{
  "project_info": {
    "project_number": "36843269248",
    "project_id": "fir-ch6-92c90",
    "storage_bucket": "fir-ch6-92c90.appspot.com"
  },
  "client": [
    {
      "client_info": {
        "mobilesdk_app_id": "1:36843269248:android:f1c0fd85c85aaf24fa0a65",
        "android_client_info": {
          "package_name": "com.firebasech6"
        }
      },
      "oauth_client": [
        {
          "client_id": "36843269248-ocd3f13u66ejsje6li9b680ao4djv789.apps.googleusercontent.com",
          "client_type": 1,
          "android_info": {
            "package_name": "com.firebasech6",
            "certificate_hash": "5e8f16062ea3cd2c4a0d547876baa6f38cabf625"
          }
        },
        {
          "client_id": "36843269248-b9vraa3qegpa9p648ipvoctfu6ij5teo.apps.googleusercontent.com",
          "client_type": 3
        }
      ],
      "api_key": [
        {
          "current_key": "AIzaSyD7syF05gutVukH-lHT-TR5iC6uULuXQ4I"
        }
      ],
      "services": {
        "appinvite_service": {
          "other_platform_oauth_client": [
            {
              "client_id": "36843269248-b9vraa3qegpa9p648ipvoctfu6ij5teo.apps.googleusercontent.com",
              "client_type": 3
            }
          ]
        }
      }
    }
  ],
  "configuration_version": "1"
}